{
    "KPackageStructure": "Plasma/Applet",
    "KPlugin": {
        "Authors": [
            {
                "Email": "kde@privat.broulik.de",
                "Name": "Kai Uwe Broulik",
                "Name[ar]": "كاي أووي بروتيك",
                "Name[ast]": "Kai Uwe Broulik",
                "Name[az]": "Kai Uwe Broulik",
                "Name[be]": "Kai Uwe Broulik",
                "Name[bg]": "Kai Uwe Broulik",
                "Name[ca@valencia]": "Kai Uwe Broulik",
                "Name[ca]": "Kai Uwe Broulik",
                "Name[cs]": "Kai Uwe Broulik",
                "Name[da]": "Kai Uwe Broulik",
                "Name[de]": "Kai Uwe Broulik",
                "Name[el]": "Kai Uwe Broulik",
                "Name[en_GB]": "Kai Uwe Broulik",
                "Name[eo]": "Kai Uwe Broulik",
                "Name[es]": "Kai Uwe Broulik",
                "Name[et]": "Kai Uwe Broulik",
                "Name[eu]": "Kai Uwe Broulik",
                "Name[fi]": "Kai Uwe Broulik",
                "Name[fr]": "Kai Uwe Broulik",
                "Name[gl]": "Kai Uwe Broulik",
                "Name[he]": "קאי אווה ברוליק",
                "Name[hi]": "काई उवे ब्रोलिक",
                "Name[hu]": "Kai Uwe Broulik",
                "Name[ia]": "Kai Uwe Broulik",
                "Name[id]": "Kai Uwe Broulik",
                "Name[is]": "Kai Uwe Broulik",
                "Name[it]": "Kai Uwe Broulik",
                "Name[ja]": "Kai Uwe Broulik",
                "Name[ka]": "კაი უვე ბროულიკი",
                "Name[ko]": "Kai Uwe Broulik",
                "Name[lt]": "Kai Uwe Broulik",
                "Name[lv]": "Kai Uwe Broulik",
                "Name[nl]": "Kai Uwe Broulik",
                "Name[nn]": "Kai Uwe Broulik",
                "Name[pa]": "ਕੋਈ ਉਵੇ ਬਰੋਉਲਿਕ",
                "Name[pl]": "Kai Uwe Broulik",
                "Name[pt]": "Kai Uwe Broulik",
                "Name[pt_BR]": "Kai Uwe Broulik",
                "Name[ro]": "Kai Uwe Broulik",
                "Name[ru]": "Kai Uwe Broulik",
                "Name[sa]": "कै उवे ब्रौलिक्",
                "Name[sk]": "Kai Uwe Broulik",
                "Name[sl]": "Kai Uwe Broulik",
                "Name[sv]": "Kai Uwe Broulik",
                "Name[ta]": "காய் ஊவே புரோலிக்",
                "Name[tr]": "Kai Uwe Broulik",
                "Name[uk]": "Kai Uwe Broulik",
                "Name[vi]": "Kai Uwe Broulik",
                "Name[x-test]": "xxKai Uwe Broulikxx",
                "Name[zh_CN]": "Kai Uwe Broulik",
                "Name[zh_TW]": "Kai Uwe Broulik"
            }
        ],
        "BugReportUrl": "https://bugs.kde.org/enter_bug.cgi?product=plasmashell&component=System%20Monitor",
        "Category": "System Information",
        "Description": "System monitor widget that shows usage of individual CPU cores",
        "Description[ar]": "أداة مراقبة النظام التي تعرض استخدام كل نواة من المعالج",
        "Description[bg]": "Уиджет за системен монитор, който показва използването на отделни ядра на процесора",
        "Description[ca@valencia]": "Giny del monitor del sistema que mostra l'ús individual dels nuclis de la CPU",
        "Description[ca]": "Giny del monitor del sistema que mostra l'ús individual dels nuclis de la CPU",
        "Description[cs]": "Widget monitoru systému, zobrazující využití jednotlivých jader CPU",
        "Description[el]": "Συστατικό παρακολούθησης συστήματος που δείχνει τη χρήση των πυρήνων ΚΜΕ ξεχωριστά",
        "Description[en_GB]": "System monitor widget that shows usage of individual CPU cores",
        "Description[eo]": "Sistemmonitora fenestraĵo kiu montras uzadon de individuaj CPU-kernoj",
        "Description[es]": "Elemento gráfico del monitor del sistema que muestra el uso de los núcleos individuales de la CPU",
        "Description[eu]": "PUZeko nukleoen banakako erabilera erakusten duen sistema gainbegiratzeko trepeta",
        "Description[fr]": "Composant graphique de surveillance du système, affichant l'utilisation de chaque cœur du processeur.",
        "Description[gl]": "Trebello de vixilancia do sistema que mostra o uso de núcleos de procesador individuais.",
        "Description[he]": "יישומון צג מערכת שמציג ניצולת של ליבות מעבד בנפרד",
        "Description[hu]": "Rendszermonitor elem, amely az egyes logikai processzorok használatát mutatja",
        "Description[ia]": "Widget de supervision de systema que monstra le uso del nucleos individual",
        "Description[it]": "Oggetto di monitoraggio del sistema che mostra l'utilizzo dei singoli core del processore",
        "Description[ka]": "სისტემური მონიტორის ვიჯეტი, რომელიც CPU-ის ბირთვების დატვირთვას სათითაოდ აჩვენებს",
        "Description[lt]": "Sistemos prižiūryklės valdiklis, kuris rodo atskirų procesoriaus branduolių naudojimą",
        "Description[nl]": "Systeemmonitorwidget die gebruik toont van individuele CPU-kernen",
        "Description[nn]": "System­overvaking som viser bruk av einskilde prosessor­kjernar",
        "Description[pl]": "Element interfejsu, który pokazuje wykorzystanie poszczególnych rdzeni procesora",
        "Description[ru]": "Мониторинг загрузки процессора, предоставляющий сведения об индивидуальном использовании ядер",
        "Description[sl]": "Gradnik sistemskega monitorja, ki prikazuje rabo posameznih jeder CPE",
        "Description[sv]": "Grafisk systemövervakningskomponent som visar användning av individuella processorkärnor",
        "Description[tr]": "Tekil CPU çekirdeklerini gösteren sistem monitörü araç takımı",
        "Description[uk]": "Віджет нагляду за системою, який показує використання окремих ядер процесора",
        "Description[x-test]": "xxSystem monitor widget that shows usage of individual CPU coresxx",
        "Description[zh_TW]": "顯示個別 CPU 核心用量的系統監控元件",
        "EnabledByDefault": true,
        "FormFactors": [
            "desktop"
        ],
        "Icon": "ksysguardd",
        "Id": "org.kde.plasma.systemmonitor.cpucore",
        "License": "GPL-2.0+",
        "Name": "Individual Core Usage",
        "Name[ar]": "استخدام النوى الفردية",
        "Name[az]": "MP nüvəsinin yükü",
        "Name[be]": "Выкарыстанне ядзер працэсара",
        "Name[bg]": "Използване на ядрата на процесора",
        "Name[ca@valencia]": "Ús individual del nucli",
        "Name[ca]": "Ús individual del nucli",
        "Name[da]": "Brug af hver kerne",
        "Name[de]": "Auslastung einzelner Prozessorkerne",
        "Name[el]": "Ατομική χρήση πυρήνα",
        "Name[en_GB]": "Individual Core Usage",
        "Name[eo]": "Uzado de Individuaj Kernoj",
        "Name[es]": "Uso de núcleos individuales",
        "Name[et]": "Iga tuuma kasutus",
        "Name[eu]": "Nukleoen banakako erabilera",
        "Name[fi]": "Yksittäisten ydinten käyttö",
        "Name[fr]": "Utilisation de chaque cœur ",
        "Name[gl]": "Uso de núcleos individuais",
        "Name[he]": "ניצולת לליבה בודדת",
        "Name[hi]": "व्यक्तिगत कोर उपयोग ",
        "Name[hu]": "Logikai processzorok használata",
        "Name[ia]": "Uso de nucleo (core) individual",
        "Name[id]": "Penggunaan Core Individual",
        "Name[is]": "Notkun einstakra kjarna",
        "Name[it]": "Utilizzo del singolo core",
        "Name[ja]": "各コアの使用率",
        "Name[ka]": "თითოეული ბირთვის დატვირთვა",
        "Name[ko]": "개별 코어 사용량",
        "Name[lt]": "Atskirų branduolių naudojimas",
        "Name[lv]": "Atsevišķa kodola noslodze",
        "Name[ml]": "വ്യക്തിഗത കോർ ഉപയോഗം",
        "Name[nl]": "Individueel gebruik van kernen",
        "Name[nn]": "Einskildkjerne-bruk",
        "Name[pa]": "ਵੱਖੋ-ਵੱਖ ਕੋਰ ਵਰਤੋਂ",
        "Name[pl]": "Wykorzystanie na rdzeń",
        "Name[pt]": "Carga dos Núcleos Individuais",
        "Name[pt_BR]": "Uso individual do núcleo",
        "Name[ro]": "Utilizare individuală nuclee",
        "Name[ru]": "Загрузка ядер ЦП",
        "Name[sa]": "व्यक्तिगत मूलप्रयोग",
        "Name[sk]": "Využitie jednotlivých jadier",
        "Name[sl]": "Poraba posameznega jedra",
        "Name[sv]": "Användning av individuella kärnor",
        "Name[ta]": "தனிப்பட்ட கணிப்பி பயன்பாட்டு",
        "Name[tok]": "kepeken pi ilo nanpa wan",
        "Name[tr]": "Bireysel Çekirdek Kullanımı",
        "Name[uk]": "Використання окремих ядер",
        "Name[vi]": "Lượng dùng mỗi lõi riêng lẻ",
        "Name[x-test]": "xxIndividual Core Usagexx",
        "Name[zh_CN]": "单个核心使用率",
        "Name[zh_TW]": "獨立核心用量",
        "Website": "https://www.kde.org/plasma-desktop"
    },
    "X-Plasma-API-Minimum-Version": "6.0",
    "X-Plasma-Provides": [
        "org.kde.plasma.systemmonitor"
    ],
    "X-Plasma-RootPath": "org.kde.plasma.systemmonitor"
}
